15 Semantic Network Analysis (Examples) – Basic AI Programming
…
sort = T: Sorts the results in descending order by count, so the most frequently co-occurring word pairs appear at the top.

Returns: A data frame with columns item1, item2, and n, where n is the count of documents in which each word pair (item1 and item2) co-occurs.

Output pair_words_f: To generate a co-occurrence network, you would call this function on a dataset:

::: {.cell}

pairwise_data <- pair_words_f(x_data_english)

pairwise_data

::: {.cell-output .cell-output-stdout}

# A tibble: 36,128 × 3
   item1      item2          n
   <chr>      <chr>      <dbl>
 1 student    school        74
 2 school     student       74
 3 korean     student       73
 4 student    korean        73
 5 effect     student       63
 6 student    effect        63
 7 elementary school        61
 8 school     elementary    61
 9 learn      student       58
10 student    learn         58
# ℹ 36,118 more rows
…
Edges and Nodes:

geom_edge_link(...): Adds edges between nodes, with transparency and width proportional to correlation strength.

geom_node_point(...): Sizes nodes by centrality and colors them by group.

geom_node_text(...): Labels each node with the word, using a repelling effect to avoid overlap.

Generate Correlation Data and Visualize:

set.seed(1234)
words_cors_english <- words_cors_f(x_data_english, 50)
words_cors_english

# A tibble: 552 × 3
   item1      item2      correlation
   <chr>      <chr>            <dbl>
 1 elementary school           0.412
 2 school     elementary       0.412
 3 efl        learner          0.280
 4 learner    efl              0.280
 5 university student          0.269
 6 student    university       0.269
 7 college    student          0.252
 8 student    college          0.252
 9 vocabulary learn            0.233
10 learn      vocabulary       0.233
# ℹ 542 more rows
…
